{
	"fileVersion": 1,
	"versions": {
		"d2sqlite3": "1.0.0",
		"ddmp": "0.0.1-0.dev.3",
		"diet-ng": "1.8.1",
		"dxml": "0.4.3",
		"emsi_containers": "0.9.0",
		"eventcore": "0.9.21",
		"fluent-asserts": "1.0.0",
		"fluent-asserts-vibe": "1.0.0-beta.1",
		"libasync": "0.8.6",
		"libdparse": "0.20.0",
		"memutils": "1.0.4",
		"mir-linux-kernel": "1.0.1",
		"openssl": "3.3.0",
		"stdx-allocator": "2.77.5",
		"taggedalgebraic": "0.11.22",
		"trial": "0.8.0-beta.5",
		"vibe-core": "1.22.5",
		"vibe-d": "0.9.5"
	}
}