{
	"fileVersion": 1,
	"versions": {
		"botan": "1.12.18",
		"botan-math": "1.0.3",
		"d2sqlite3": "0.19.1",
		"ddmp": "0.0.1-0.dev.3",
		"diet-ng": "1.7.4",
		"dxml": "0.4.3",
		"emsi_containers": "0.8.1",
		"eventcore": "0.9.11",
		"fluent-asserts": "1.0.0",
		"fluent-asserts-vibe": "1.0.0-beta.2",
		"geo": {"path":"../../"},
		"libasync": "0.8.6",
		"libdparse": "0.14.0",
		"memutils": "1.0.4",
		"mir-core": "0.2.2",
		"mir-linux-kernel": "1.0.1",
		"openssl": "1.1.6+1.0.1g",
		"stdx-allocator": "3.0.2",
		"taggedalgebraic": "0.11.18",
		"vibe-core": "1.11.1",
		"vibe-d": "0.9.2"
	}
}
