{
	"name": "mbtiles-hosting",
	"authors": [
		"Bogdan Szabo"
	],
	"description": "A minimal D application.",
	"copyright": "Copyright © 2018, Bogdan Szabo",
	"license": "MIT",

	"targetType": "executable",

	"dependencies": {
		"d2sqlite3": "~>0.18.1",
		"vibe-d": "~>0.8.4",
		"vt": {
			"path": "../../"
		}
	},

	"configurations":[
		{
			"name": "trial",
			"dependencies": {
				"fluent-asserts": "*"
			}
		}
	]
}
